
    digraph xtext {
    fontname = "Bitstream Vera Sans"
    fontsize = 8
    node[
        shape=record,
        style=filled,
        fillcolor=aliceblue
    ]
    nodesep = 0.3
    edge[dir=black,arrowtail=empty]


140341371559632 -> 140341371630416 [label="entities:0" arrowtail=diamond dir=both]
140341371630416 -> 140341371631568 [label="properties:0" arrowtail=diamond dir=both]
140341371631568 -> 140341420435152 [label="type" ]
140341420435152[label="{string:SimpleType|}"]
140341371631568[label="{nombre:Property|}"]
140341371630416 -> 140341371632272 [label="properties:1" arrowtail=diamond dir=both]
140341371632272 -> 140341420435152 [label="type" ]
140341371632272[label="{apellido:Property|}"]
140341371630416 -> 140341371632400 [label="properties:2" arrowtail=diamond dir=both]
140341371632400 -> 140341420435152 [label="type" ]
140341371632400[label="{direccion:Property|}"]
140341371630416 -> 140341371632592 [label="properties:3" arrowtail=diamond dir=both]
140341371632592 -> 140341420434384 [label="type" ]
140341420434384[label="{integer:SimpleType|}"]
140341371632592[label="{edad:Property|}"]
140341371630416 -> 140341371632720 [label="properties:4" arrowtail=diamond dir=both]
140341371632720 -> 140341420434384 [label="type" ]
140341371632720[label="{telefono:Property|}"]
140341371630416 -> 140341371632848 [label="properties:5" arrowtail=diamond dir=both]
140341371632848 -> 140341417706320 [label="type" ]
140341417706320[label="{float:SimpleType|}"]
140341371632848[label="{porcentaje:Property|}"]
140341371630416 -> 140341371632976 [label="properties:6" arrowtail=diamond dir=both]
140341371632976 -> 140341420435152 [label="type" ]
140341371632976[label="{correo:Property|}"]
140341371630416 -> 140341371633104 [label="properties:7" arrowtail=diamond dir=both]
140341371633104 -> 140341417706960 [label="type" ]
140341417706960[label="{time:SimpleType|}"]
140341371633104[label="{fecha:Property|}"]
140341371630416[label="{Usuario:Entity|}"]
140341371559632[label="{:EntityModel|types:list=[]\l}"]

}
